<?xml version="1.0" encoding="UTF-8"?>
<svg width="152px" height="146px" viewBox="0 0 152 146" version="1.1" xmlns="http://www.w3.org/2000/svg" xmlns:xlink="http://www.w3.org/1999/xlink">
    <!-- Generator: Sketch 45.2 (43514) - http://www.bohemiancoding.com/sketch -->
    <title>star</title>
    <desc>Created with Sketch.</desc>
    <defs>
        <polygon id="path-1" points="69.3260196 0 90.7477596 43.3980882 138.652039 50.4000162 103.989029 84.1617877 112.1695 131.858089 69.3260196 109.327133 26.4825395 131.858089 34.6630098 84.1617877 0 50.4000162 47.9042795 43.3980882"></polygon>
        <filter x="-6.5%" y="-6.1%" width="113.0%" height="113.7%" filterUnits="objectBoundingBox" id="filter-2">
            <feMorphology radius="2.5" operator="dilate" in="SourceAlpha" result="shadowSpreadOuter1"></feMorphology>
            <feOffset dx="0" dy="1" in="shadowSpreadOuter1" result="shadowOffsetOuter1"></feOffset>
            <feMorphology radius="2.5" operator="erode" in="SourceAlpha" result="shadowInner"></feMorphology>
            <feOffset dx="0" dy="1" in="shadowInner" result="shadowInner"></feOffset>
            <feComposite in="shadowOffsetOuter1" in2="shadowInner" operator="out" result="shadowOffsetOuter1"></feComposite>
            <feGaussianBlur stdDeviation="2" in="shadowOffsetOuter1" result="shadowBlurOuter1"></feGaussianBlur>
            <feColorMatrix values="0 0 0 0 0   0 0 0 0 0   0 0 0 0 0  0 0 0 0.5 0" type="matrix" in="shadowBlurOuter1"></feColorMatrix>
        </filter>
    </defs>
    <g id="Page-1" stroke="none" stroke-width="1" fill="none" fill-rule="evenodd">
        <g id="Mobile" transform="translate(-32.000000, -151.000000)">
            <g id="star" transform="translate(39.000000, 157.000000)">
                <g id="Shape" stroke-linecap="round" stroke-linejoin="round">
                    <use fill="black" fill-opacity="1" filter="url(#filter-2)" xlink:href="#path-1"></use>
                    <use stroke="#000000" stroke-width="5" xlink:href="#path-1"></use>
                </g>
                <g id="eye" transform="translate(46.000000, 51.000000)">
                    <circle id="Oval" stroke="#000000" stroke-width="5" cx="9" cy="9" r="9"></circle>
                    <circle id="Oval-4" fill="#000000" cx="10" cy="12" r="4"></circle>
                </g>
                <g id="eye" transform="translate(76.000000, 51.000000)">
                    <circle id="Oval" stroke="#000000" stroke-width="5" cx="9" cy="9" r="9"></circle>
                    <circle id="Oval-4" fill="#000000" cx="10" cy="12" r="4"></circle>
                </g>
                <path d="" id="Path-2" stroke="#979797"></path>
                <path d="M69.2280749,96.1421796 C72.4901746,96.7674141 78.1517032,92.4900002 82.59537,86.3202601 C87.7064136,79.8504542 82.0423507,74.871396 69.1112909,75.5198058 C55.9355108,76.2184488 49.957713,80.461036 55.2889202,85.2916136 C59.8446649,90.5042478 65.824997,95.5181327 69.2280749,96.1421796 Z" id="Oval-5" stroke="#000000" stroke-width="5"></path>
            </g>
        </g>
    </g>
</svg>